…
# simulate X2 as a variable that is caused by X1 with some random error
x2 <- (0.5*x1) + rnorm(n = n, mean = 0, sd = 0.1)

# simulate X3 as a variable that is caused by both X1 and X2 with some random error
x3 <- (-0.3*x1) + (1.2*x2) + rnorm(n = n, mean = 0, sd = 0.1)

# simulate Y as a variable that is caused by X2 and X3 with some random error
y <- (0.75*x2) + (1.5*x3) + rnorm(n = n, mean = 0, sd = 0.1)

# wrap all of this into a tibble (i.e. a fancy data.frame)
dag1_df <- dplyr::tibble(x1, x2, x3, y)
print(dag1_df)
```

    ## # A tibble: 500 × 4
    ##       x1    x2    x3     y
    ##    <dbl> <dbl> <dbl> <dbl>
    ##  1  18.9  9.29  5.61  15.4
    ##  2  18.9  9.33  5.54  15.3
    ##  3  22.1 11.0   6.70  18.3
    ##  4  20.2 10.1   6.04  16.6
    ##  5  18.4  9.25  5.51  15.1
    ##  6  19.9 10.0   5.94  16.4
    ##  7  23.4 11.8   7.12  19.7
    ##  8  18.2  9.07  5.42  14.8
    ##  9  14.2  7.13  4.21  11.8
    ## 10  19.9 10.0   6.08  16.7
    ## # ℹ 490 more rows
…
